Multiple Comparisons
…
                              )$p.value
         )

df3$pvalue.BH <- p.adjust(df3$pvalue, method = "BH")

df3$pvalue.Bonf <- p.adjust(df3$pvalue, method = "bonferroni")

df3 %>% arrange(pvalue) %>%
  mutate(across(c(pvalue, pvalue.BH, pvalue.Bonf), ~ round(.x, digits = 3)))

## # A tibble: 90 × 6
## # Rowwise: 
##    standard_n younger experienced pvalue pvalue.BH pvalue.Bonf
##         <int>   <int>       <int>  <dbl>     <dbl>       <dbl>
##  1         59       0          27  0         0           0    
##  2         16       5          28  0         0           0    
##  3         37       6          27  0         0           0    
##  4         57       6          20  0.001     0.012       0.052
##  5         38       8          22  0.001     0.012       0.059
##  6         42       8          21  0.002     0.025       0.152
##  7         48       8          19  0.009     0.114       0.798
##  8         27      13          23  0.017     0.145       1    
##  9         45      13          23  0.017     0.145       1    
## 10         39       9          19  0.019     0.145       1    
## # ℹ 80 more rows

FDR. Пример 1. Стандарты педиатрической паллиативной помощи

## # A tibble: 90 × 8
## # Rowwise: 
##    standard_n younger experienced   pvalue pvalue.BH pvalue.Bonf pvalue.adj
##         <int>   <int>       <int>    <dbl>     <dbl>       <dbl>      <dbl>
##  1         59       0          27 9.23e-14  8.30e-12    8.30e-12      0    
##  2         16       5          28 1.43e- 9  6.42e- 8    1.28e- 7      0    
##  3         37       6          27 5.62e- 8  1.69e- 6    5.06e- 6      0    
##  4         57       6          20 5.74e- 4  1.18e- 2    5.16e- 2      0.012
##  5         38       8          22 6.56e- 4  1.18e- 2    5.90e- 2      0.012
##  6         42       8          21 1.69e- 3  2.54e- 2    1.52e- 1      0.025
##  7         48       8          19 8.87e- 3  1.14e- 1    7.98e- 1      0.114
##  8         27      13          23 1.69e- 2  1.45e- 1    1   e+ 0      0.145
##  9         45      13          23 1.69e- 2  1.45e- 1    1   e+ 0      0.145
## 10         39       9          19 1.91e- 2  1.45e- 1    1   e+ 0      0.145
## # ℹ 80 more rows
## # ℹ 1 more variable: pvalue.adj2 <dbl>
…
